<?php
    class Htmalpage {
        private $title = "its a title";
        private $body = "its a body";
        public function view() {
            echo "<html>
                <head>
                  <title>$this->title</title>
                </head>
                <body>
                    $this->body 
                </body>
        </html>";
        }
        function __construct($title = "", $body = ""){
            if($title != ""){
                $this->title = $title;
            }
            if($body != ""){
                $this->body = $body;
            }
        }
    }
?>